C:\Users\jchybik\Desktop\projects\manta\Connector\DataFactory\manta-connector-datafactory-model\src\main\java\eu\profinit\manta\connector\datafactory\model\linkedservice\IFtpServerLinkedService.java
C:\Users\jchybik\Desktop\projects\manta\Connector\DataFactory\manta-connector-datafactory-model\src\main\java\eu\profinit\manta\connector\datafactory\model\linkedservice\IFileServerLinkedService.java
C:\Users\jchybik\Desktop\projects\manta\Connector\DataFactory\manta-connector-datafactory-model\src\main\java\eu\profinit\manta\connector\datafactory\model\factory\IGlobalParameterSpecification.java
C:\Users\jchybik\Desktop\projects\manta\Connector\DataFactory\manta-connector-datafactory-model\src\main\java\eu\profinit\manta\connector\datafactory\model\linkedservice\IPostgreSqlLinkedService.java
C:\Users\jchybik\Desktop\projects\manta\Connector\DataFactory\manta-connector-datafactory-model\src\main\java\eu\profinit\manta\connector\datafactory\model\linkedservice\ISftpServerLinkedService.java
C:\Users\jchybik\Desktop\projects\manta\Connector\DataFactory\manta-connector-datafactory-model\src\main\java\eu\profinit\manta\connector\datafactory\model\common\ReferenceType.java
C:\Users\jchybik\Desktop\projects\manta\Connector\DataFactory\manta-connector-datafactory-model\src\main\java\eu\profinit\manta\connector\datafactory\model\dfsparser\ast\IAstJoinTransformation.java
C:\Users\jchybik\Desktop\projects\manta\Connector\DataFactory\manta-connector-datafactory-model\src\main\java\eu\profinit\manta\connector\datafactory\model\dfsparser\ast\IAstDFS.java
C:\Users\jchybik\Desktop\projects\manta\Connector\DataFactory\manta-connector-datafactory-model\src\main\java\eu\profinit\manta\connector\datafactory\model\dfsparser\ast\IAstExpression.java
C:\Users\jchybik\Desktop\projects\manta\Connector\DataFactory\manta-connector-datafactory-model\src\main\java\eu\profinit\manta\connector\datafactory\model\dataset\file\location\IAzureBlobStorageLocation.java
C:\Users\jchybik\Desktop\projects\manta\Connector\DataFactory\manta-connector-datafactory-model\src\main\java\eu\profinit\manta\connector\datafactory\model\IDataset.java
C:\Users\jchybik\Desktop\projects\manta\Connector\DataFactory\manta-connector-datafactory-model\src\main\java\eu\profinit\manta\connector\datafactory\model\linkedservice\ISapHanaLinkedService.java
C:\Users\jchybik\Desktop\projects\manta\Connector\DataFactory\manta-connector-datafactory-model\src\main\java\eu\profinit\manta\connector\datafactory\model\dataflow\transformation\ISourceTransformation.java
C:\Users\jchybik\Desktop\projects\manta\Connector\DataFactory\manta-connector-datafactory-model\src\main\java\eu\profinit\manta\connector\datafactory\model\linkedservice\ITeradataLinkedService.java
C:\Users\jchybik\Desktop\projects\manta\Connector\DataFactory\manta-connector-datafactory-model\src\main\java\eu\profinit\manta\connector\datafactory\model\dataset\file\IDelimitedTextDataset.java
C:\Users\jchybik\Desktop\projects\manta\Connector\DataFactory\manta-connector-datafactory-model\src\main\java\eu\profinit\manta\connector\datafactory\model\dfsparser\ast\IAstADFStream.java
C:\Users\jchybik\Desktop\projects\manta\Connector\DataFactory\manta-connector-datafactory-model\src\main\java\eu\profinit\manta\connector\datafactory\model\linkedservice\IHiveLinkedService.java
C:\Users\jchybik\Desktop\projects\manta\Connector\DataFactory\manta-connector-datafactory-model\src\main\java\eu\profinit\manta\connector\datafactory\model\visitor\IDatasetVisitor.java
C:\Users\jchybik\Desktop\projects\manta\Connector\DataFactory\manta-connector-datafactory-model\src\main\java\eu\profinit\manta\connector\datafactory\model\dataflow\transformation\IJoinTransformation.java
C:\Users\jchybik\Desktop\projects\manta\Connector\DataFactory\manta-connector-datafactory-model\src\main\java\eu\profinit\manta\connector\datafactory\model\dfsparser\ast\IAstOutputAttribute.java
C:\Users\jchybik\Desktop\projects\manta\Connector\DataFactory\manta-connector-datafactory-model\src\main\java\eu\profinit\manta\connector\datafactory\model\common\IParameterSpecification.java
C:\Users\jchybik\Desktop\projects\manta\Connector\DataFactory\manta-connector-datafactory-model\src\main\java\eu\profinit\manta\connector\datafactory\model\dataset\database\IAzureSqlTableDataset.java
C:\Users\jchybik\Desktop\projects\manta\Connector\DataFactory\manta-connector-datafactory-model\src\main\java\eu\profinit\manta\connector\datafactory\model\linkedservice\IAzureBlobStorageLinkedService.java
C:\Users\jchybik\Desktop\projects\manta\Connector\DataFactory\manta-connector-datafactory-model\src\main\java\eu\profinit\manta\connector\datafactory\model\dataset\file\IOrcDataset.java
C:\Users\jchybik\Desktop\projects\manta\Connector\DataFactory\manta-connector-datafactory-model\src\main\java\eu\profinit\manta\connector\datafactory\model\dataflow\DataFlowType.java
C:\Users\jchybik\Desktop\projects\manta\Connector\DataFactory\manta-connector-datafactory-model\src\main\java\eu\profinit\manta\connector\datafactory\model\dfsparser\ast\IAstSinkTransformation.java
C:\Users\jchybik\Desktop\projects\manta\Connector\DataFactory\manta-connector-datafactory-model\src\main\java\eu\profinit\manta\connector\datafactory\model\dataflow\transformation\datarepresentation\ITable.java
C:\Users\jchybik\Desktop\projects\manta\Connector\DataFactory\manta-connector-datafactory-model\src\main\java\eu\profinit\manta\connector\datafactory\model\dfsparser\ast\IAstGeneralTransformation.java
C:\Users\jchybik\Desktop\projects\manta\Connector\DataFactory\manta-connector-datafactory-model\src\main\java\eu\profinit\manta\connector\datafactory\model\dfsparser\ast\IAstIdentifier.java
C:\Users\jchybik\Desktop\projects\manta\Connector\DataFactory\manta-connector-datafactory-model\src\main\java\eu\profinit\manta\connector\datafactory\model\dataset\file\location\IFileServerLocation.java
C:\Users\jchybik\Desktop\projects\manta\Connector\DataFactory\manta-connector-datafactory-model\src\main\java\eu\profinit\manta\connector\datafactory\model\linkedservice\IAzureSqlDWLinkedService.java
C:\Users\jchybik\Desktop\projects\manta\Connector\DataFactory\manta-connector-datafactory-model\src\main\java\eu\profinit\manta\connector\datafactory\model\dataset\database\IPostgreSqlTableDataset.java
C:\Users\jchybik\Desktop\projects\manta\Connector\DataFactory\manta-connector-datafactory-model\src\main\java\eu\profinit\manta\connector\datafactory\model\linkedservice\HiveServerType.java
C:\Users\jchybik\Desktop\projects\manta\Connector\DataFactory\manta-connector-datafactory-model\src\main\java\eu\profinit\manta\connector\datafactory\model\dataset\database\INetezzaTableDataset.java
C:\Users\jchybik\Desktop\projects\manta\Connector\DataFactory\manta-connector-datafactory-model\src\main\java\eu\profinit\manta\connector\datafactory\model\dataset\database\IAzureSqlMITableDataset.java
C:\Users\jchybik\Desktop\projects\manta\Connector\DataFactory\manta-connector-datafactory-model\src\main\java\eu\profinit\manta\connector\datafactory\model\common\IAdfFieldValue.java
C:\Users\jchybik\Desktop\projects\manta\Connector\DataFactory\manta-connector-datafactory-model\src\main\java\eu\profinit\manta\connector\datafactory\model\linkedservice\IAzureBlobFSLinkedService.java
C:\Users\jchybik\Desktop\projects\manta\Connector\DataFactory\manta-connector-datafactory-model\src\main\java\eu\profinit\manta\connector\datafactory\model\common\IReference.java
C:\Users\jchybik\Desktop\projects\manta\Connector\DataFactory\manta-connector-datafactory-model\src\main\java\eu\profinit\manta\connector\datafactory\model\dataset\file\location\IAzureDataLakeStoreLocation.java
C:\Users\jchybik\Desktop\projects\manta\Connector\DataFactory\manta-connector-datafactory-model\src\main\java\eu\profinit\manta\connector\datafactory\model\dataflow\transformation\IFilterTransformation.java
C:\Users\jchybik\Desktop\projects\manta\Connector\DataFactory\manta-connector-datafactory-model\src\main\java\eu\profinit\manta\connector\datafactory\model\dataset\database\ITeradataTableDataset.java
C:\Users\jchybik\Desktop\projects\manta\Connector\DataFactory\manta-connector-datafactory-model\src\main\java\eu\profinit\manta\connector\datafactory\model\dataflow\IExpression.java
C:\Users\jchybik\Desktop\projects\manta\Connector\DataFactory\manta-connector-datafactory-model\src\main\java\eu\profinit\manta\connector\datafactory\model\dataflow\IDataFlowScript.java
C:\Users\jchybik\Desktop\projects\manta\Connector\DataFactory\manta-connector-datafactory-model\src\main\java\eu\profinit\manta\connector\datafactory\model\linkedservice\IAzureSqlDatabaseLinkedService.java
C:\Users\jchybik\Desktop\projects\manta\Connector\DataFactory\manta-connector-datafactory-model\src\main\java\eu\profinit\manta\connector\datafactory\model\linkedservice\IAzurePostgreSqlLinkedService.java
C:\Users\jchybik\Desktop\projects\manta\Connector\DataFactory\manta-connector-datafactory-model\src\main\java\eu\profinit\manta\connector\datafactory\model\dataflow\transformation\datarepresentation\IColumnRef.java
C:\Users\jchybik\Desktop\projects\manta\Connector\DataFactory\manta-connector-datafactory-model\src\main\java\eu\profinit\manta\connector\datafactory\model\dataflow\transformation\ISinkTransformation.java
C:\Users\jchybik\Desktop\projects\manta\Connector\DataFactory\manta-connector-datafactory-model\src\main\java\eu\profinit\manta\connector\datafactory\model\dataset\database\ISqlServerTableDataset.java
C:\Users\jchybik\Desktop\projects\manta\Connector\DataFactory\manta-connector-datafactory-model\src\main\java\eu\profinit\manta\connector\datafactory\model\dataflow\IDataflowParameter.java
C:\Users\jchybik\Desktop\projects\manta\Connector\DataFactory\manta-connector-datafactory-model\src\main\java\eu\profinit\manta\connector\datafactory\model\dataset\file\IXmlDataset.java
C:\Users\jchybik\Desktop\projects\manta\Connector\DataFactory\manta-connector-datafactory-model\src\main\java\eu\profinit\manta\connector\datafactory\model\linkedservice\LinkedServiceType.java
C:\Users\jchybik\Desktop\projects\manta\Connector\DataFactory\manta-connector-datafactory-model\src\main\java\eu\profinit\manta\connector\datafactory\model\common\IArgument.java
C:\Users\jchybik\Desktop\projects\manta\Connector\DataFactory\manta-connector-datafactory-model\src\main\java\eu\profinit\manta\connector\datafactory\model\IDataFlow.java
C:\Users\jchybik\Desktop\projects\manta\Connector\DataFactory\manta-connector-datafactory-model\src\main\java\eu\profinit\manta\connector\datafactory\model\linkedservice\IDb2LinkedService.java
C:\Users\jchybik\Desktop\projects\manta\Connector\DataFactory\manta-connector-datafactory-model\src\main\java\eu\profinit\manta\connector\datafactory\model\linkedservice\IGeneralFtpServerLinkedService.java
C:\Users\jchybik\Desktop\projects\manta\Connector\DataFactory\manta-connector-datafactory-model\src\main\java\eu\profinit\manta\connector\datafactory\model\dfsparser\ast\IAstFilterTransformation.java
C:\Users\jchybik\Desktop\projects\manta\Connector\DataFactory\manta-connector-datafactory-model\src\main\java\eu\profinit\manta\connector\datafactory\model\dataset\database\IAzurePostgreSqlTableDataset.java
C:\Users\jchybik\Desktop\projects\manta\Connector\DataFactory\manta-connector-datafactory-model\src\main\java\eu\profinit\manta\connector\datafactory\model\dataset\file\IJsonDataset.java
C:\Users\jchybik\Desktop\projects\manta\Connector\DataFactory\manta-connector-datafactory-model\src\main\java\eu\profinit\manta\connector\datafactory\model\linkedservice\ISnowflakeLinkedService.java
C:\Users\jchybik\Desktop\projects\manta\Connector\DataFactory\manta-connector-datafactory-model\src\main\java\eu\profinit\manta\connector\datafactory\model\dataset\database\IAzureSqlDWTableDataset.java
C:\Users\jchybik\Desktop\projects\manta\Connector\DataFactory\manta-connector-datafactory-model\src\main\java\eu\profinit\manta\connector\datafactory\model\dataset\file\location\IHdfsLocation.java
C:\Users\jchybik\Desktop\projects\manta\Connector\DataFactory\manta-connector-datafactory-model\src\main\java\eu\profinit\manta\connector\datafactory\model\dataflow\transformation\IUnknownTransformation.java
C:\Users\jchybik\Desktop\projects\manta\Connector\DataFactory\manta-connector-datafactory-model\src\main\java\eu\profinit\manta\connector\datafactory\model\dataset\database\ISybaseTableDataset.java
C:\Users\jchybik\Desktop\projects\manta\Connector\DataFactory\manta-connector-datafactory-model\src\main\java\eu\profinit\manta\connector\datafactory\model\dataset\file\location\IAmazonS3Location.java
C:\Users\jchybik\Desktop\projects\manta\Connector\DataFactory\manta-connector-datafactory-model\src\main\java\eu\profinit\manta\connector\datafactory\model\dataset\file\location\IFtpServerLocation.java
C:\Users\jchybik\Desktop\projects\manta\Connector\DataFactory\manta-connector-datafactory-model\src\main\java\eu\profinit\manta\connector\datafactory\model\IPipeline.java
C:\Users\jchybik\Desktop\projects\manta\Connector\DataFactory\manta-connector-datafactory-model\src\main\java\eu\profinit\manta\connector\datafactory\model\linkedservice\IGreenplumLinkedService.java
C:\Users\jchybik\Desktop\projects\manta\Connector\DataFactory\manta-connector-datafactory-model\src\main\java\eu\profinit\manta\connector\datafactory\model\dataset\file\location\IHttpServerLocation.java
C:\Users\jchybik\Desktop\projects\manta\Connector\DataFactory\manta-connector-datafactory-model\src\main\java\eu\profinit\manta\connector\datafactory\model\dfsparser\ast\IAstTransformation.java
C:\Users\jchybik\Desktop\projects\manta\Connector\DataFactory\manta-connector-datafactory-model\src\main\java\eu\profinit\manta\connector\datafactory\model\linkedservice\IAmazonRedshiftLinkedService.java
C:\Users\jchybik\Desktop\projects\manta\Connector\DataFactory\manta-connector-datafactory-model\src\main\java\eu\profinit\manta\connector\datafactory\model\visitor\ILinkedServiceVisitor.java
C:\Users\jchybik\Desktop\projects\manta\Connector\DataFactory\manta-connector-datafactory-model\src\main\java\eu\profinit\manta\connector\datafactory\model\dataset\file\IAvroDataset.java
C:\Users\jchybik\Desktop\projects\manta\Connector\DataFactory\manta-connector-datafactory-model\src\main\java\eu\profinit\manta\connector\datafactory\model\dfsparser\ast\IAstColumnDefinition.java
C:\Users\jchybik\Desktop\projects\manta\Connector\DataFactory\manta-connector-datafactory-model\src\main\java\eu\profinit\manta\connector\datafactory\model\IADFElement.java
C:\Users\jchybik\Desktop\projects\manta\Connector\DataFactory\manta-connector-datafactory-model\src\main\java\eu\profinit\manta\connector\datafactory\model\dataset\database\ISnowflakeDataset.java
C:\Users\jchybik\Desktop\projects\manta\Connector\DataFactory\manta-connector-datafactory-model\src\main\java\eu\profinit\manta\connector\datafactory\model\linkedservice\ISybaseLinkedService.java
C:\Users\jchybik\Desktop\projects\manta\Connector\DataFactory\manta-connector-datafactory-model\src\main\java\eu\profinit\manta\connector\datafactory\model\dataflow\transformation\IADFStream.java
C:\Users\jchybik\Desktop\projects\manta\Connector\DataFactory\manta-connector-datafactory-model\src\main\java\eu\profinit\manta\connector\datafactory\model\dfsparser\ast\IAstConcreteTransformation.java
C:\Users\jchybik\Desktop\projects\manta\Connector\DataFactory\manta-connector-datafactory-model\src\main\java\eu\profinit\manta\connector\datafactory\model\dfsparser\ast\IAstParameter.java
C:\Users\jchybik\Desktop\projects\manta\Connector\DataFactory\manta-connector-datafactory-model\src\main\java\eu\profinit\manta\connector\datafactory\model\dataflow\DataFlowDataType.java
C:\Users\jchybik\Desktop\projects\manta\Connector\DataFactory\manta-connector-datafactory-model\src\main\java\eu\profinit\manta\connector\datafactory\model\dataflow\IDataFlowProperties.java
C:\Users\jchybik\Desktop\projects\manta\Connector\DataFactory\manta-connector-datafactory-model\src\main\java\eu\profinit\manta\connector\datafactory\model\dataset\DatasetType.java
C:\Users\jchybik\Desktop\projects\manta\Connector\DataFactory\manta-connector-datafactory-model\src\main\java\eu\profinit\manta\connector\datafactory\model\linkedservice\ISqlServerLinkedService.java
C:\Users\jchybik\Desktop\projects\manta\Connector\DataFactory\manta-connector-datafactory-model\src\main\java\eu\profinit\manta\connector\datafactory\model\linkedservice\IGoogleCloudStorageLinkedService.java
C:\Users\jchybik\Desktop\projects\manta\Connector\DataFactory\manta-connector-datafactory-model\src\main\java\eu\profinit\manta\connector\datafactory\model\dataset\database\IGoogleBigQueryObjectDataset.java
C:\Users\jchybik\Desktop\projects\manta\Connector\DataFactory\manta-connector-datafactory-model\src\main\java\eu\profinit\manta\connector\datafactory\model\dataset\file\IParquetDataset.java
C:\Users\jchybik\Desktop\projects\manta\Connector\DataFactory\manta-connector-datafactory-model\src\main\java\eu\profinit\manta\connector\datafactory\model\dfsparser\ast\IAstSourceTransformation.java
C:\Users\jchybik\Desktop\projects\manta\Connector\DataFactory\manta-connector-datafactory-model\src\main\java\eu\profinit\manta\connector\datafactory\model\dataflow\IDataFlowEndpoint.java
C:\Users\jchybik\Desktop\projects\manta\Connector\DataFactory\manta-connector-datafactory-model\src\main\java\eu\profinit\manta\connector\datafactory\model\dataset\database\IOracleTableDataset.java
C:\Users\jchybik\Desktop\projects\manta\Connector\DataFactory\manta-connector-datafactory-model\src\main\java\eu\profinit\manta\connector\datafactory\model\linkedservice\IGoogleBigQueryLinkedService.java
C:\Users\jchybik\Desktop\projects\manta\Connector\DataFactory\manta-connector-datafactory-model\src\main\java\eu\profinit\manta\connector\datafactory\model\common\IParameters.java
C:\Users\jchybik\Desktop\projects\manta\Connector\DataFactory\manta-connector-datafactory-model\src\main\java\eu\profinit\manta\connector\datafactory\model\dataflow\transformation\datarepresentation\visitor\IColumnVisitor.java
C:\Users\jchybik\Desktop\projects\manta\Connector\DataFactory\manta-connector-datafactory-model\src\main\java\eu\profinit\manta\connector\datafactory\model\dataset\file\location\LocationType.java
C:\Users\jchybik\Desktop\projects\manta\Connector\DataFactory\manta-connector-datafactory-model\src\main\java\eu\profinit\manta\connector\datafactory\model\dataset\database\IDatabaseDataset.java
C:\Users\jchybik\Desktop\projects\manta\Connector\DataFactory\manta-connector-datafactory-model\src\main\java\eu\profinit\manta\connector\datafactory\model\dfsparser\ast\IDFSNode.java
C:\Users\jchybik\Desktop\projects\manta\Connector\DataFactory\manta-connector-datafactory-model\src\main\java\eu\profinit\manta\connector\datafactory\model\dataset\IDatasetSchema.java
C:\Users\jchybik\Desktop\projects\manta\Connector\DataFactory\manta-connector-datafactory-model\src\main\java\eu\profinit\manta\connector\datafactory\model\linkedservice\IUnknownLinkedService.java
C:\Users\jchybik\Desktop\projects\manta\Connector\DataFactory\manta-connector-datafactory-model\src\main\java\eu\profinit\manta\connector\datafactory\model\IADF.java
C:\Users\jchybik\Desktop\projects\manta\Connector\DataFactory\manta-connector-datafactory-model\src\main\java\eu\profinit\manta\connector\datafactory\model\linkedservice\IAmazonS3LinkedService.java
C:\Users\jchybik\Desktop\projects\manta\Connector\DataFactory\manta-connector-datafactory-model\src\main\java\eu\profinit\manta\connector\datafactory\model\dataset\file\IBinaryDataset.java
C:\Users\jchybik\Desktop\projects\manta\Connector\DataFactory\manta-connector-datafactory-model\src\main\java\eu\profinit\manta\connector\datafactory\model\dataset\database\IHiveObjectDataset.java
C:\Users\jchybik\Desktop\projects\manta\Connector\DataFactory\manta-connector-datafactory-model\src\main\java\eu\profinit\manta\connector\datafactory\model\dataset\file\IExcelDataset.java
C:\Users\jchybik\Desktop\projects\manta\Connector\DataFactory\manta-connector-datafactory-model\src\main\java\eu\profinit\manta\connector\datafactory\model\dataflow\transformation\datarepresentation\IColumnDef.java
C:\Users\jchybik\Desktop\projects\manta\Connector\DataFactory\manta-connector-datafactory-model\src\main\java\eu\profinit\manta\connector\datafactory\model\dataflow\transformation\ITransformation.java
C:\Users\jchybik\Desktop\projects\manta\Connector\DataFactory\manta-connector-datafactory-model\src\main\java\eu\profinit\manta\connector\datafactory\model\linkedservice\IOracleLinkedService.java
C:\Users\jchybik\Desktop\projects\manta\Connector\DataFactory\manta-connector-datafactory-model\src\main\java\eu\profinit\manta\connector\datafactory\model\dataset\file\location\IFileDatasetLocation.java
C:\Users\jchybik\Desktop\projects\manta\Connector\DataFactory\manta-connector-datafactory-model\src\main\java\eu\profinit\manta\connector\datafactory\model\linkedservice\IAzureFileStorageLinkedService.java
C:\Users\jchybik\Desktop\projects\manta\Connector\DataFactory\manta-connector-datafactory-model\src\main\java\eu\profinit\manta\connector\datafactory\model\dataset\file\location\IDatasetLocation.java
C:\Users\jchybik\Desktop\projects\manta\Connector\DataFactory\manta-connector-datafactory-model\src\main\java\eu\profinit\manta\connector\datafactory\model\dataflow\mapping\IMappingDataFlowProperties.java
C:\Users\jchybik\Desktop\projects\manta\Connector\DataFactory\manta-connector-datafactory-model\src\main\java\eu\profinit\manta\connector\datafactory\model\dataset\file\location\ISftpLocation.java
C:\Users\jchybik\Desktop\projects\manta\Connector\DataFactory\manta-connector-datafactory-model\src\main\java\eu\profinit\manta\connector\datafactory\model\ILinkedService.java
C:\Users\jchybik\Desktop\projects\manta\Connector\DataFactory\manta-connector-datafactory-model\src\main\java\eu\profinit\manta\connector\datafactory\model\linkedservice\INetezzaLinkedService.java
C:\Users\jchybik\Desktop\projects\manta\Connector\DataFactory\manta-connector-datafactory-model\src\main\java\eu\profinit\manta\connector\datafactory\model\common\AdfFieldType.java
C:\Users\jchybik\Desktop\projects\manta\Connector\DataFactory\manta-connector-datafactory-model\src\main\java\eu\profinit\manta\connector\datafactory\model\linkedservice\IAzureDataLakeStoreLinkedService.java
C:\Users\jchybik\Desktop\projects\manta\Connector\DataFactory\manta-connector-datafactory-model\src\main\java\eu\profinit\manta\connector\datafactory\model\dfsparser\ast\IAstDataType.java
C:\Users\jchybik\Desktop\projects\manta\Connector\DataFactory\manta-connector-datafactory-model\src\main\java\eu\profinit\manta\connector\datafactory\model\IFactory.java
C:\Users\jchybik\Desktop\projects\manta\Connector\DataFactory\manta-connector-datafactory-model\src\main\java\eu\profinit\manta\connector\datafactory\model\dataset\file\location\IAzureFileStorageLocation.java
C:\Users\jchybik\Desktop\projects\manta\Connector\DataFactory\manta-connector-datafactory-model\src\main\java\eu\profinit\manta\connector\datafactory\model\linkedservice\IHdfsLinkedService.java
C:\Users\jchybik\Desktop\projects\manta\Connector\DataFactory\manta-connector-datafactory-model\src\main\java\eu\profinit\manta\connector\datafactory\model\dataflow\transformation\datarepresentation\IColumn.java
C:\Users\jchybik\Desktop\projects\manta\Connector\DataFactory\manta-connector-datafactory-model\src\main\java\eu\profinit\manta\connector\datafactory\model\dfsparser\ast\IAstTransformationAttribute.java
C:\Users\jchybik\Desktop\projects\manta\Connector\DataFactory\manta-connector-datafactory-model\src\main\java\eu\profinit\manta\connector\datafactory\model\dfsparser\ast\IAstDataTypeFormat.java
C:\Users\jchybik\Desktop\projects\manta\Connector\DataFactory\manta-connector-datafactory-model\src\main\java\eu\profinit\manta\connector\datafactory\model\dataset\IUnknownDataset.java
C:\Users\jchybik\Desktop\projects\manta\Connector\DataFactory\manta-connector-datafactory-model\src\main\java\eu\profinit\manta\connector\datafactory\model\linkedservice\IAzureSqlMILinkedService.java
C:\Users\jchybik\Desktop\projects\manta\Connector\DataFactory\manta-connector-datafactory-model\src\main\java\eu\profinit\manta\connector\datafactory\model\common\ParameterType.java
C:\Users\jchybik\Desktop\projects\manta\Connector\DataFactory\manta-connector-datafactory-model\src\main\java\eu\profinit\manta\connector\datafactory\model\dataset\database\IDb2TableDataset.java
C:\Users\jchybik\Desktop\projects\manta\Connector\DataFactory\manta-connector-datafactory-model\src\main\java\eu\profinit\manta\connector\datafactory\model\dataset\database\IAmazonRedshiftTableDataset.java
C:\Users\jchybik\Desktop\projects\manta\Connector\DataFactory\manta-connector-datafactory-model\src\main\java\eu\profinit\manta\connector\datafactory\model\errors\InvalidExpressionTypeException.java
C:\Users\jchybik\Desktop\projects\manta\Connector\DataFactory\manta-connector-datafactory-model\src\main\java\eu\profinit\manta\connector\datafactory\model\dataset\database\IGreenplumTableDataset.java
C:\Users\jchybik\Desktop\projects\manta\Connector\DataFactory\manta-connector-datafactory-model\src\main\java\eu\profinit\manta\connector\datafactory\model\factory\GlobalParameterType.java
C:\Users\jchybik\Desktop\projects\manta\Connector\DataFactory\manta-connector-datafactory-model\src\main\java\eu\profinit\manta\connector\datafactory\model\dataflow\transformation\datarepresentation\IColumnMatch.java
C:\Users\jchybik\Desktop\projects\manta\Connector\DataFactory\manta-connector-datafactory-model\src\main\java\eu\profinit\manta\connector\datafactory\model\dataset\file\location\IAzureBlobFSLocation.java
C:\Users\jchybik\Desktop\projects\manta\Connector\DataFactory\manta-connector-datafactory-model\src\main\java\eu\profinit\manta\connector\datafactory\model\dfsparser\ast\IAstTransformationAttributes.java
C:\Users\jchybik\Desktop\projects\manta\Connector\DataFactory\manta-connector-datafactory-model\src\main\java\eu\profinit\manta\connector\datafactory\model\dataset\file\location\IGoogleCloudStorageLocation.java
C:\Users\jchybik\Desktop\projects\manta\Connector\DataFactory\manta-connector-datafactory-model\src\main\java\eu\profinit\manta\connector\datafactory\model\dataset\file\IFileDataset.java
C:\Users\jchybik\Desktop\projects\manta\Connector\DataFactory\manta-connector-datafactory-model\src\main\java\eu\profinit\manta\connector\datafactory\model\dataset\file\location\visitor\ILocationVisitor.java
