-------------------------------------------------------------------------------
Test set: eu.profinit.manta.connector.datafactory.resolver.service.dataflow.DataFlowMappingPropertiesTest
-------------------------------------------------------------------------------
Tests run: 15, Failures: 0, Errors: 0, Skipped: 0, Time elapsed: 0.156 s - in eu.profinit.manta.connector.datafactory.resolver.service.dataflow.DataFlowMappingPropertiesTest
