-------------------------------------------------------------------------------
Test set: eu.profinit.manta.connector.datafactory.resolver.service.dataflow.DFSParserServiceTest
-------------------------------------------------------------------------------
Tests run: 7, Failures: 0, Errors: 0, Skipped: 0, Time elapsed: 0.328 s - in eu.profinit.manta.connector.datafactory.resolver.service.dataflow.DFSParserServiceTest
