<?xml version="1.0" encoding="UTF-8"?>
<testsuite xmlns:xsi="http://www.w3.org/2001/XMLSchema-instance" xsi:noNamespaceSchemaLocation="https://maven.apache.org/surefire/maven-surefire-plugin/xsd/surefire-test-report-3.0.xsd" version="3.0" name="eu.profinit.manta.connector.datafactory.resolver.service.factory.FactoryParserImplTest" time="0.094" tests="4" errors="0" skipped="0" failures="0">
  <properties>
    <property name="sun.desktop" value="windows"/>
    <property name="awt.toolkit" value="sun.awt.windows.WToolkit"/>
    <property name="java.specification.version" value="11"/>
    <property name="sun.cpu.isalist" value="amd64"/>
    <property name="sun.jnu.encoding" value="Cp1252"/>
    <property name="java.class.path" value="C:\Users\jchybik\Desktop\projects\manta\Connector\DataFactory\manta-connector-datafactory-resolver\target\test-classes;C:\Users\jchybik\Desktop\projects\manta\Connector\DataFactory\manta-connector-datafactory-resolver\target\classes;C:\Users\jchybik\.m2\repository\eu\profinit\manta\manta-connector-common-grammarchecker\37.0.0-SNAPSHOT\manta-connector-common-grammarchecker-37.0.0-SNAPSHOT.jar;C:\Users\jchybik\Desktop\projects\manta\Connector\DataFactory\manta-connector-datafactory-model\target\manta-connector-datafactory-model-37.0.0-SNAPSHOT.jar;C:\Users\jchybik\.m2\repository\eu\profinit\manta\manta-connector-common-model\37.0.0-SNAPSHOT\manta-connector-common-model-37.0.0-SNAPSHOT.jar;C:\Users\jchybik\.m2\repository\eu\profinit\manta\manta-connector-common-dictionary-api\37.0.0-SNAPSHOT\manta-connector-common-dictionary-api-37.0.0-SNAPSHOT.jar;C:\Users\jchybik\.m2\repository\commons-codec\commons-codec\1.15\commons-codec-1.15.jar;C:\Users\jchybik\.m2\repository\eu\profinit\manta\manta-platform-automation\37.0.0-SNAPSHOT\manta-platform-automation-37.0.0-SNAPSHOT.jar;C:\Users\jchybik\.m2\repository\commons-io\commons-io\2.8.0\commons-io-2.8.0.jar;C:\Users\jchybik\.m2\repository\eu\profinit\manta\manta-platform-logging-api\37.0.0-SNAPSHOT\manta-platform-logging-api-37.0.0-SNAPSHOT.jar;C:\Users\jchybik\.m2\repository\eu\profinit\manta\manta-commons-model\37.0.0-SNAPSHOT\manta-commons-model-37.0.0-SNAPSHOT.jar;C:\Users\jchybik\.m2\repository\eu\profinit\manta\manta-connector-jms\37.0.0-SNAPSHOT\manta-connector-jms-37.0.0-SNAPSHOT.jar;C:\Users\jchybik\.m2\repository\eu\profinit\manta\manta-connector-jms-artemis-client\37.0.0-SNAPSHOT\manta-connector-jms-artemis-client-37.0.0-SNAPSHOT.jar;C:\Users\jchybik\.m2\repository\jakarta\json\jakarta.json-api\1.1.6\jakarta.json-api-1.1.6.jar;C:\Users\jchybik\.m2\repository\org\apache\johnzon\johnzon-core\0.9.5\johnzon-core-0.9.5.jar;C:\Users\jchybik\.m2\repository\org\jboss\logging\jboss-logging\3.4.0.Final\jboss-logging-3.4.0.Final.jar;C:\Users\jchybik\.m2\repository\commons-beanutils\commons-beanutils\1.9.4\commons-beanutils-1.9.4.jar;C:\Users\jchybik\.m2\repository\commons-collections\commons-collections\3.2.2\commons-collections-3.2.2.jar;C:\Users\jchybik\.m2\repository\jakarta\jms\jakarta.jms-api\2.0.3\jakarta.jms-api-2.0.3.jar;C:\Users\jchybik\.m2\repository\org\springframework\spring-context\5.3.19\spring-context-5.3.19.jar;C:\Users\jchybik\.m2\repository\org\springframework\spring-aop\5.3.19\spring-aop-5.3.19.jar;C:\Users\jchybik\.m2\repository\org\springframework\spring-expression\5.3.19\spring-expression-5.3.19.jar;C:\Users\jchybik\.m2\repository\org\springframework\spring-jms\5.3.19\spring-jms-5.3.19.jar;C:\Users\jchybik\.m2\repository\org\springframework\spring-messaging\5.3.19\spring-messaging-5.3.19.jar;C:\Users\jchybik\.m2\repository\org\apache\commons\commons-configuration2\2.1\commons-configuration2-2.1.jar;C:\Users\jchybik\.m2\repository\org\yaml\snakeyaml\1.29\snakeyaml-1.29.jar;C:\Users\jchybik\.m2\repository\org\apache\logging\log4j\log4j-core\2.17.1\log4j-core-2.17.1.jar;C:\Users\jchybik\.m2\repository\org\apache\logging\log4j\log4j-api\2.17.1\log4j-api-2.17.1.jar;C:\Users\jchybik\.m2\repository\org\apache\httpcomponents\httpclient\4.5.13\httpclient-4.5.13.jar;C:\Users\jchybik\.m2\repository\org\apache\httpcomponents\httpcore\4.4.13\httpcore-4.4.13.jar;C:\Users\jchybik\.m2\repository\commons-logging\commons-logging\1.2\commons-logging-1.2.jar;C:\Users\jchybik\.m2\repository\com\fasterxml\jackson\core\jackson-databind\2.13.2.1\jackson-databind-2.13.2.1.jar;C:\Users\jchybik\.m2\repository\com\squareup\javapoet\1.12.1\javapoet-1.12.1.jar;C:\Users\jchybik\.m2\repository\eu\profinit\manta\manta-platform-logging-common\37.0.0-SNAPSHOT\manta-platform-logging-common-37.0.0-SNAPSHOT.jar;C:\Users\jchybik\.m2\repository\eu\profinit\manta\manta-platform-logging-appender\37.0.0-SNAPSHOT\manta-platform-logging-appender-37.0.0-SNAPSHOT.jar;C:\Users\jchybik\.m2\repository\org\apache\commons\commons-lang3\3.12.0\commons-lang3-3.12.0.jar;C:\Users\jchybik\.m2\repository\junit\junit\4.13\junit-4.13.jar;C:\Users\jchybik\.m2\repository\org\hamcrest\hamcrest-core\1.3\hamcrest-core-1.3.jar;C:\Users\jchybik\.m2\repository\org\mockito\mockito-core\3.4.0\mockito-core-3.4.0.jar;C:\Users\jchybik\.m2\repository\net\bytebuddy\byte-buddy\1.12.7\byte-buddy-1.12.7.jar;C:\Users\jchybik\.m2\repository\net\bytebuddy\byte-buddy-agent\1.10.10\byte-buddy-agent-1.10.10.jar;C:\Users\jchybik\.m2\repository\org\objenesis\objenesis\2.6\objenesis-2.6.jar;C:\Users\jchybik\.m2\repository\eu\profinit\manta\manta-platform-logging-binding\37.0.0-SNAPSHOT\manta-platform-logging-binding-37.0.0-SNAPSHOT.jar;C:\Users\jchybik\.m2\repository\org\slf4j\slf4j-api\1.7.30\slf4j-api-1.7.30.jar;C:\Users\jchybik\.m2\repository\eu\profinit\manta\manta-platform-logging-archiver\37.0.0-SNAPSHOT\manta-platform-logging-archiver-37.0.0-SNAPSHOT.jar;C:\Users\jchybik\.m2\repository\eu\profinit\manta\manta-platform-configuration\37.0.0-SNAPSHOT\manta-platform-configuration-37.0.0-SNAPSHOT.jar;C:\Users\jchybik\.m2\repository\org\dom4j\dom4j\2.1.3\dom4j-2.1.3.jar;C:\Users\jchybik\.m2\repository\eu\profinit\manta\manta-platform-encryption-properties\37.0.0-SNAPSHOT\manta-platform-encryption-properties-37.0.0-SNAPSHOT.jar;C:\Users\jchybik\.m2\repository\eu\profinit\manta\manta-platform-encryption-model\37.0.0-SNAPSHOT\manta-platform-encryption-model-37.0.0-SNAPSHOT.jar;C:\Users\jchybik\.m2\repository\eu\profinit\manta\manta-platform-encryption-symetric-advanced\37.0.0-SNAPSHOT\manta-platform-encryption-symetric-advanced-37.0.0-SNAPSHOT.jar;C:\Users\jchybik\.m2\repository\eu\profinit\manta\manta-connector-http\37.0.0-SNAPSHOT\manta-connector-http-37.0.0-SNAPSHOT.jar;C:\Users\jchybik\.m2\repository\org\apache\httpcomponents\httpmime\4.5.13\httpmime-4.5.13.jar;C:\Users\jchybik\.m2\repository\org\springframework\security\spring-security-core\5.6.0\spring-security-core-5.6.0.jar;C:\Users\jchybik\.m2\repository\org\springframework\security\spring-security-crypto\5.6.0\spring-security-crypto-5.6.0.jar;C:\Users\jchybik\.m2\repository\eu\profinit\manta\manta-platform-web-core\37.0.0-SNAPSHOT\manta-platform-web-core-37.0.0-SNAPSHOT.jar;C:\Users\jchybik\.m2\repository\eu\profinit\manta\manta-commons-inputport\37.0.0-SNAPSHOT\manta-commons-inputport-37.0.0-SNAPSHOT.jar;C:\Users\jchybik\.m2\repository\javax\mail\mail\1.4.5\mail-1.4.5.jar;C:\Users\jchybik\.m2\repository\javax\activation\activation\1.1\activation-1.1.jar;C:\Users\jchybik\.m2\repository\org\freemarker\freemarker\2.3.29\freemarker-2.3.29.jar;C:\Users\jchybik\.m2\repository\org\springframework\spring-webmvc\5.3.19\spring-webmvc-5.3.19.jar;C:\Users\jchybik\.m2\repository\org\springframework\spring-web\5.3.19\spring-web-5.3.19.jar;C:\Users\jchybik\.m2\repository\org\springframework\spring-context-support\5.3.19\spring-context-support-5.3.19.jar;C:\Users\jchybik\.m2\repository\org\springframework\security\spring-security-oauth2-jose\5.6.0\spring-security-oauth2-jose-5.6.0.jar;C:\Users\jchybik\.m2\repository\org\springframework\security\spring-security-oauth2-core\5.6.0\spring-security-oauth2-core-5.6.0.jar;C:\Users\jchybik\.m2\repository\com\nimbusds\nimbus-jose-jwt\9.14\nimbus-jose-jwt-9.14.jar;C:\Users\jchybik\.m2\repository\com\github\stephenc\jcip\jcip-annotations\1.0-1\jcip-annotations-1.0-1.jar;C:\Users\jchybik\.m2\repository\org\springframework\security\spring-security-web\5.6.0\spring-security-web-5.6.0.jar;C:\Users\jchybik\.m2\repository\org\springframework\security\spring-security-ldap\5.6.0\spring-security-ldap-5.6.0.jar;C:\Users\jchybik\.m2\repository\org\springframework\ldap\spring-ldap-core\2.3.4.RELEASE\spring-ldap-core-2.3.4.RELEASE.jar;C:\Users\jchybik\.m2\repository\eu\profinit\manta\manta-platform-cache\37.0.0-SNAPSHOT\manta-platform-cache-37.0.0-SNAPSHOT.jar;C:\Users\jchybik\.m2\repository\org\ehcache\ehcache\3.9.9\ehcache-3.9.9.jar;C:\Users\jchybik\.m2\repository\eu\profinit\manta\manta-platform-encryption-utils\37.0.0-SNAPSHOT\manta-platform-encryption-utils-37.0.0-SNAPSHOT.jar;C:\Users\jchybik\.m2\repository\org\bouncycastle\bcprov-jdk15on\1.68\bcprov-jdk15on-1.68.jar;C:\Users\jchybik\.m2\repository\org\bouncycastle\bcpkix-jdk15on\1.68\bcpkix-jdk15on-1.68.jar;C:\Users\jchybik\.m2\repository\org\keycloak\keycloak-core\15.1.1\keycloak-core-15.1.1.jar;C:\Users\jchybik\.m2\repository\org\keycloak\keycloak-common\15.1.1\keycloak-common-15.1.1.jar;C:\Users\jchybik\.m2\repository\org\apache\commons\commons-compress\1.21\commons-compress-1.21.jar;C:\Users\jchybik\.m2\repository\eu\profinit\manta\manta-platform-commons-xml\37.0.0-SNAPSHOT\manta-platform-commons-xml-37.0.0-SNAPSHOT.jar;C:\Users\jchybik\.m2\repository\org\slf4j\jcl-over-slf4j\1.7.30\jcl-over-slf4j-1.7.30.jar;C:\Users\jchybik\.m2\repository\com\google\code\findbugs\jsr305\3.0.2\jsr305-3.0.2.jar;C:\Users\jchybik\.m2\repository\javax\annotation\javax.annotation-api\1.3.2\javax.annotation-api-1.3.2.jar;C:\Users\jchybik\.m2\repository\jakarta\xml\bind\jakarta.xml.bind-api\3.0.1\jakarta.xml.bind-api-3.0.1.jar;C:\Users\jchybik\.m2\repository\com\sun\activation\jakarta.activation\2.0.1\jakarta.activation-2.0.1.jar;C:\Users\jchybik\.m2\repository\org\glassfish\jaxb\jaxb-runtime\3.0.2\jaxb-runtime-3.0.2.jar;C:\Users\jchybik\.m2\repository\org\glassfish\jaxb\jaxb-core\3.0.2\jaxb-core-3.0.2.jar;C:\Users\jchybik\.m2\repository\org\glassfish\jaxb\txw2\3.0.2\txw2-3.0.2.jar;C:\Users\jchybik\.m2\repository\com\sun\istack\istack-commons-runtime\4.0.1\istack-commons-runtime-4.0.1.jar;C:\Users\jchybik\.m2\repository\eu\profinit\manta\manta-connector-common-dictionary\37.0.0-SNAPSHOT\manta-connector-common-dictionary-37.0.0-SNAPSHOT.jar;C:\Users\jchybik\.m2\repository\eu\profinit\manta\manta-connector-common-ast\37.0.0-SNAPSHOT\manta-connector-common-ast-37.0.0-SNAPSHOT.jar;C:\Users\jchybik\.m2\repository\jaxen\jaxen\1.2.0\jaxen-1.2.0.jar;C:\Users\jchybik\.m2\repository\eu\profinit\manta\manta-platform-ast\37.0.0-SNAPSHOT\manta-platform-ast-37.0.0-SNAPSHOT.jar;C:\Users\jchybik\.m2\repository\eu\profinit\manta\manta-connector-common-connection\37.0.0-SNAPSHOT\manta-connector-common-connection-37.0.0-SNAPSHOT.jar;C:\Users\jchybik\.m2\repository\eu\profinit\manta\manta-commons-file-utils\37.0.0-SNAPSHOT\manta-commons-file-utils-37.0.0-SNAPSHOT.jar;C:\Users\jchybik\.m2\repository\eu\profinit\manta\manta-connector-common\37.0.0-SNAPSHOT\manta-connector-common-37.0.0-SNAPSHOT.jar;C:\Users\jchybik\.m2\repository\org\apache\commons\commons-collections4\4.1\commons-collections4-4.1.jar;C:\Users\jchybik\.m2\repository\net\sf\opencsv\opencsv\2.3\opencsv-2.3.jar;C:\Users\jchybik\.m2\repository\org\springframework\spring-jdbc\5.3.19\spring-jdbc-5.3.19.jar;C:\Users\jchybik\.m2\repository\org\springframework\spring-beans\5.3.19\spring-beans-5.3.19.jar;C:\Users\jchybik\.m2\repository\org\springframework\spring-core\5.3.19\spring-core-5.3.19.jar;C:\Users\jchybik\.m2\repository\org\springframework\spring-jcl\5.3.19\spring-jcl-5.3.19.jar;C:\Users\jchybik\.m2\repository\org\springframework\spring-tx\5.3.19\spring-tx-5.3.19.jar;C:\Users\jchybik\.m2\repository\org\apache\commons\commons-dbcp2\2.7.0\commons-dbcp2-2.7.0.jar;C:\Users\jchybik\.m2\repository\org\apache\commons\commons-pool2\2.7.0\commons-pool2-2.7.0.jar;C:\Users\jchybik\.m2\repository\com\h2database\h2\2.1.210\h2-2.1.210.jar;C:\Users\jchybik\.m2\repository\org\antlr\antlr\3.5-rc-2-fix8\antlr-3.5-rc-2-fix8.jar;C:\Users\jchybik\.m2\repository\org\antlr\ST4\4.0.7-rc-2\ST4-4.0.7-rc-2.jar;C:\Users\jchybik\.m2\repository\org\antlr\antlr-runtime\3.5-rc-2\antlr-runtime-3.5-rc-2.jar;C:\Users\jchybik\.m2\repository\org\antlr\stringtemplate\3.2.1\stringtemplate-3.2.1.jar;C:\Users\jchybik\.m2\repository\antlr\antlr\2.7.7\antlr-2.7.7.jar;C:\Users\jchybik\.m2\repository\eu\profinit\manta\manta-dataflow-model-expressions\37.0.0-SNAPSHOT\manta-dataflow-model-expressions-37.0.0-SNAPSHOT.jar;C:\Users\jchybik\.m2\repository\eu\profinit\manta\manta-dataflow-model\37.0.0-SNAPSHOT\manta-dataflow-model-37.0.0-SNAPSHOT.jar;C:\Users\jchybik\.m2\repository\org\jgrapht\jgrapht-jdk1.5\0.7.3\jgrapht-jdk1.5-0.7.3.jar;C:\Users\jchybik\.m2\repository\eu\profinit\manta\manta-dataflow-generator-model-utils\37.0.0-SNAPSHOT\manta-dataflow-generator-model-utils-37.0.0-SNAPSHOT.jar;C:\Users\jchybik\.m2\repository\eu\profinit\manta\manta-connector-common-csv\37.0.0-SNAPSHOT\manta-connector-common-csv-37.0.0-SNAPSHOT.jar;C:\Users\jchybik\.m2\repository\eu\profinit\manta\manta-platform-licensing-validator\37.0.0-SNAPSHOT\manta-platform-licensing-validator-37.0.0-SNAPSHOT.jar;C:\Users\jchybik\.m2\repository\eu\profinit\manta\manta-platform-licensing-common\37.0.0-SNAPSHOT\manta-platform-licensing-common-37.0.0-SNAPSHOT.jar;C:\Users\jchybik\.m2\repository\org\jasypt\jasypt\1.9.1\jasypt-1.9.1.jar;C:\Users\jchybik\.m2\repository\eu\profinit\manta\manta-platform-encryption-symetric\37.0.0-SNAPSHOT\manta-platform-encryption-symetric-37.0.0-SNAPSHOT.jar;C:\Users\jchybik\.m2\repository\org\springframework\security\spring-security-config\5.6.0\spring-security-config-5.6.0.jar;C:\Users\jchybik\.m2\repository\com\fasterxml\jackson\core\jackson-core\2.13.2\jackson-core-2.13.2.jar;C:\Users\jchybik\.m2\repository\com\fasterxml\jackson\core\jackson-annotations\2.13.2\jackson-annotations-2.13.2.jar;"/>
    <property name="java.vm.vendor" value="Oracle Corporation"/>
    <property name="sun.arch.data.model" value="64"/>
    <property name="user.variant" value=""/>
    <property name="java.vendor.url" value="https://openjdk.java.net/"/>
    <property name="user.timezone" value="Europe/Prague"/>
    <property name="java.vm.specification.version" value="11"/>
    <property name="os.name" value="Windows 10"/>
    <property name="sun.java.launcher" value="SUN_STANDARD"/>
    <property name="user.country" value="US"/>
    <property name="sun.boot.library.path" value="C:\Program Files\Java\jdk-11.0.13\bin"/>
    <property name="sun.java.command" value="C:\Users\jchybik\AppData\Local\Temp\surefire2237251660233686570\surefirebooter17536650623995030503.jar C:\Users\jchybik\AppData\Local\Temp\surefire2237251660233686570 2022-04-24T18-44-24_286-jvmRun1 surefire3883636093156878113tmp surefire_010682564929686460777tmp"/>
    <property name="jdk.debug" value="release"/>
    <property name="surefire.test.class.path" value="C:\Users\jchybik\Desktop\projects\manta\Connector\DataFactory\manta-connector-datafactory-resolver\target\test-classes;C:\Users\jchybik\Desktop\projects\manta\Connector\DataFactory\manta-connector-datafactory-resolver\target\classes;C:\Users\jchybik\.m2\repository\eu\profinit\manta\manta-connector-common-grammarchecker\37.0.0-SNAPSHOT\manta-connector-common-grammarchecker-37.0.0-SNAPSHOT.jar;C:\Users\jchybik\Desktop\projects\manta\Connector\DataFactory\manta-connector-datafactory-model\target\manta-connector-datafactory-model-37.0.0-SNAPSHOT.jar;C:\Users\jchybik\.m2\repository\eu\profinit\manta\manta-connector-common-model\37.0.0-SNAPSHOT\manta-connector-common-model-37.0.0-SNAPSHOT.jar;C:\Users\jchybik\.m2\repository\eu\profinit\manta\manta-connector-common-dictionary-api\37.0.0-SNAPSHOT\manta-connector-common-dictionary-api-37.0.0-SNAPSHOT.jar;C:\Users\jchybik\.m2\repository\commons-codec\commons-codec\1.15\commons-codec-1.15.jar;C:\Users\jchybik\.m2\repository\eu\profinit\manta\manta-platform-automation\37.0.0-SNAPSHOT\manta-platform-automation-37.0.0-SNAPSHOT.jar;C:\Users\jchybik\.m2\repository\commons-io\commons-io\2.8.0\commons-io-2.8.0.jar;C:\Users\jchybik\.m2\repository\eu\profinit\manta\manta-platform-logging-api\37.0.0-SNAPSHOT\manta-platform-logging-api-37.0.0-SNAPSHOT.jar;C:\Users\jchybik\.m2\repository\eu\profinit\manta\manta-commons-model\37.0.0-SNAPSHOT\manta-commons-model-37.0.0-SNAPSHOT.jar;C:\Users\jchybik\.m2\repository\eu\profinit\manta\manta-connector-jms\37.0.0-SNAPSHOT\manta-connector-jms-37.0.0-SNAPSHOT.jar;C:\Users\jchybik\.m2\repository\eu\profinit\manta\manta-connector-jms-artemis-client\37.0.0-SNAPSHOT\manta-connector-jms-artemis-client-37.0.0-SNAPSHOT.jar;C:\Users\jchybik\.m2\repository\jakarta\json\jakarta.json-api\1.1.6\jakarta.json-api-1.1.6.jar;C:\Users\jchybik\.m2\repository\org\apache\johnzon\johnzon-core\0.9.5\johnzon-core-0.9.5.jar;C:\Users\jchybik\.m2\repository\org\jboss\logging\jboss-logging\3.4.0.Final\jboss-logging-3.4.0.Final.jar;C:\Users\jchybik\.m2\repository\commons-beanutils\commons-beanutils\1.9.4\commons-beanutils-1.9.4.jar;C:\Users\jchybik\.m2\repository\commons-collections\commons-collections\3.2.2\commons-collections-3.2.2.jar;C:\Users\jchybik\.m2\repository\jakarta\jms\jakarta.jms-api\2.0.3\jakarta.jms-api-2.0.3.jar;C:\Users\jchybik\.m2\repository\org\springframework\spring-context\5.3.19\spring-context-5.3.19.jar;C:\Users\jchybik\.m2\repository\org\springframework\spring-aop\5.3.19\spring-aop-5.3.19.jar;C:\Users\jchybik\.m2\repository\org\springframework\spring-expression\5.3.19\spring-expression-5.3.19.jar;C:\Users\jchybik\.m2\repository\org\springframework\spring-jms\5.3.19\spring-jms-5.3.19.jar;C:\Users\jchybik\.m2\repository\org\springframework\spring-messaging\5.3.19\spring-messaging-5.3.19.jar;C:\Users\jchybik\.m2\repository\org\apache\commons\commons-configuration2\2.1\commons-configuration2-2.1.jar;C:\Users\jchybik\.m2\repository\org\yaml\snakeyaml\1.29\snakeyaml-1.29.jar;C:\Users\jchybik\.m2\repository\org\apache\logging\log4j\log4j-core\2.17.1\log4j-core-2.17.1.jar;C:\Users\jchybik\.m2\repository\org\apache\logging\log4j\log4j-api\2.17.1\log4j-api-2.17.1.jar;C:\Users\jchybik\.m2\repository\org\apache\httpcomponents\httpclient\4.5.13\httpclient-4.5.13.jar;C:\Users\jchybik\.m2\repository\org\apache\httpcomponents\httpcore\4.4.13\httpcore-4.4.13.jar;C:\Users\jchybik\.m2\repository\commons-logging\commons-logging\1.2\commons-logging-1.2.jar;C:\Users\jchybik\.m2\repository\com\fasterxml\jackson\core\jackson-databind\2.13.2.1\jackson-databind-2.13.2.1.jar;C:\Users\jchybik\.m2\repository\com\squareup\javapoet\1.12.1\javapoet-1.12.1.jar;C:\Users\jchybik\.m2\repository\eu\profinit\manta\manta-platform-logging-common\37.0.0-SNAPSHOT\manta-platform-logging-common-37.0.0-SNAPSHOT.jar;C:\Users\jchybik\.m2\repository\eu\profinit\manta\manta-platform-logging-appender\37.0.0-SNAPSHOT\manta-platform-logging-appender-37.0.0-SNAPSHOT.jar;C:\Users\jchybik\.m2\repository\org\apache\commons\commons-lang3\3.12.0\commons-lang3-3.12.0.jar;C:\Users\jchybik\.m2\repository\junit\junit\4.13\junit-4.13.jar;C:\Users\jchybik\.m2\repository\org\hamcrest\hamcrest-core\1.3\hamcrest-core-1.3.jar;C:\Users\jchybik\.m2\repository\org\mockito\mockito-core\3.4.0\mockito-core-3.4.0.jar;C:\Users\jchybik\.m2\repository\net\bytebuddy\byte-buddy\1.12.7\byte-buddy-1.12.7.jar;C:\Users\jchybik\.m2\repository\net\bytebuddy\byte-buddy-agent\1.10.10\byte-buddy-agent-1.10.10.jar;C:\Users\jchybik\.m2\repository\org\objenesis\objenesis\2.6\objenesis-2.6.jar;C:\Users\jchybik\.m2\repository\eu\profinit\manta\manta-platform-logging-binding\37.0.0-SNAPSHOT\manta-platform-logging-binding-37.0.0-SNAPSHOT.jar;C:\Users\jchybik\.m2\repository\org\slf4j\slf4j-api\1.7.30\slf4j-api-1.7.30.jar;C:\Users\jchybik\.m2\repository\eu\profinit\manta\manta-platform-logging-archiver\37.0.0-SNAPSHOT\manta-platform-logging-archiver-37.0.0-SNAPSHOT.jar;C:\Users\jchybik\.m2\repository\eu\profinit\manta\manta-platform-configuration\37.0.0-SNAPSHOT\manta-platform-configuration-37.0.0-SNAPSHOT.jar;C:\Users\jchybik\.m2\repository\org\dom4j\dom4j\2.1.3\dom4j-2.1.3.jar;C:\Users\jchybik\.m2\repository\eu\profinit\manta\manta-platform-encryption-properties\37.0.0-SNAPSHOT\manta-platform-encryption-properties-37.0.0-SNAPSHOT.jar;C:\Users\jchybik\.m2\repository\eu\profinit\manta\manta-platform-encryption-model\37.0.0-SNAPSHOT\manta-platform-encryption-model-37.0.0-SNAPSHOT.jar;C:\Users\jchybik\.m2\repository\eu\profinit\manta\manta-platform-encryption-symetric-advanced\37.0.0-SNAPSHOT\manta-platform-encryption-symetric-advanced-37.0.0-SNAPSHOT.jar;C:\Users\jchybik\.m2\repository\eu\profinit\manta\manta-connector-http\37.0.0-SNAPSHOT\manta-connector-http-37.0.0-SNAPSHOT.jar;C:\Users\jchybik\.m2\repository\org\apache\httpcomponents\httpmime\4.5.13\httpmime-4.5.13.jar;C:\Users\jchybik\.m2\repository\org\springframework\security\spring-security-core\5.6.0\spring-security-core-5.6.0.jar;C:\Users\jchybik\.m2\repository\org\springframework\security\spring-security-crypto\5.6.0\spring-security-crypto-5.6.0.jar;C:\Users\jchybik\.m2\repository\eu\profinit\manta\manta-platform-web-core\37.0.0-SNAPSHOT\manta-platform-web-core-37.0.0-SNAPSHOT.jar;C:\Users\jchybik\.m2\repository\eu\profinit\manta\manta-commons-inputport\37.0.0-SNAPSHOT\manta-commons-inputport-37.0.0-SNAPSHOT.jar;C:\Users\jchybik\.m2\repository\javax\mail\mail\1.4.5\mail-1.4.5.jar;C:\Users\jchybik\.m2\repository\javax\activation\activation\1.1\activation-1.1.jar;C:\Users\jchybik\.m2\repository\org\freemarker\freemarker\2.3.29\freemarker-2.3.29.jar;C:\Users\jchybik\.m2\repository\org\springframework\spring-webmvc\5.3.19\spring-webmvc-5.3.19.jar;C:\Users\jchybik\.m2\repository\org\springframework\spring-web\5.3.19\spring-web-5.3.19.jar;C:\Users\jchybik\.m2\repository\org\springframework\spring-context-support\5.3.19\spring-context-support-5.3.19.jar;C:\Users\jchybik\.m2\repository\org\springframework\security\spring-security-oauth2-jose\5.6.0\spring-security-oauth2-jose-5.6.0.jar;C:\Users\jchybik\.m2\repository\org\springframework\security\spring-security-oauth2-core\5.6.0\spring-security-oauth2-core-5.6.0.jar;C:\Users\jchybik\.m2\repository\com\nimbusds\nimbus-jose-jwt\9.14\nimbus-jose-jwt-9.14.jar;C:\Users\jchybik\.m2\repository\com\github\stephenc\jcip\jcip-annotations\1.0-1\jcip-annotations-1.0-1.jar;C:\Users\jchybik\.m2\repository\org\springframework\security\spring-security-web\5.6.0\spring-security-web-5.6.0.jar;C:\Users\jchybik\.m2\repository\org\springframework\security\spring-security-ldap\5.6.0\spring-security-ldap-5.6.0.jar;C:\Users\jchybik\.m2\repository\org\springframework\ldap\spring-ldap-core\2.3.4.RELEASE\spring-ldap-core-2.3.4.RELEASE.jar;C:\Users\jchybik\.m2\repository\eu\profinit\manta\manta-platform-cache\37.0.0-SNAPSHOT\manta-platform-cache-37.0.0-SNAPSHOT.jar;C:\Users\jchybik\.m2\repository\org\ehcache\ehcache\3.9.9\ehcache-3.9.9.jar;C:\Users\jchybik\.m2\repository\eu\profinit\manta\manta-platform-encryption-utils\37.0.0-SNAPSHOT\manta-platform-encryption-utils-37.0.0-SNAPSHOT.jar;C:\Users\jchybik\.m2\repository\org\bouncycastle\bcprov-jdk15on\1.68\bcprov-jdk15on-1.68.jar;C:\Users\jchybik\.m2\repository\org\bouncycastle\bcpkix-jdk15on\1.68\bcpkix-jdk15on-1.68.jar;C:\Users\jchybik\.m2\repository\org\keycloak\keycloak-core\15.1.1\keycloak-core-15.1.1.jar;C:\Users\jchybik\.m2\repository\org\keycloak\keycloak-common\15.1.1\keycloak-common-15.1.1.jar;C:\Users\jchybik\.m2\repository\org\apache\commons\commons-compress\1.21\commons-compress-1.21.jar;C:\Users\jchybik\.m2\repository\eu\profinit\manta\manta-platform-commons-xml\37.0.0-SNAPSHOT\manta-platform-commons-xml-37.0.0-SNAPSHOT.jar;C:\Users\jchybik\.m2\repository\org\slf4j\jcl-over-slf4j\1.7.30\jcl-over-slf4j-1.7.30.jar;C:\Users\jchybik\.m2\repository\com\google\code\findbugs\jsr305\3.0.2\jsr305-3.0.2.jar;C:\Users\jchybik\.m2\repository\javax\annotation\javax.annotation-api\1.3.2\javax.annotation-api-1.3.2.jar;C:\Users\jchybik\.m2\repository\jakarta\xml\bind\jakarta.xml.bind-api\3.0.1\jakarta.xml.bind-api-3.0.1.jar;C:\Users\jchybik\.m2\repository\com\sun\activation\jakarta.activation\2.0.1\jakarta.activation-2.0.1.jar;C:\Users\jchybik\.m2\repository\org\glassfish\jaxb\jaxb-runtime\3.0.2\jaxb-runtime-3.0.2.jar;C:\Users\jchybik\.m2\repository\org\glassfish\jaxb\jaxb-core\3.0.2\jaxb-core-3.0.2.jar;C:\Users\jchybik\.m2\repository\org\glassfish\jaxb\txw2\3.0.2\txw2-3.0.2.jar;C:\Users\jchybik\.m2\repository\com\sun\istack\istack-commons-runtime\4.0.1\istack-commons-runtime-4.0.1.jar;C:\Users\jchybik\.m2\repository\eu\profinit\manta\manta-connector-common-dictionary\37.0.0-SNAPSHOT\manta-connector-common-dictionary-37.0.0-SNAPSHOT.jar;C:\Users\jchybik\.m2\repository\eu\profinit\manta\manta-connector-common-ast\37.0.0-SNAPSHOT\manta-connector-common-ast-37.0.0-SNAPSHOT.jar;C:\Users\jchybik\.m2\repository\jaxen\jaxen\1.2.0\jaxen-1.2.0.jar;C:\Users\jchybik\.m2\repository\eu\profinit\manta\manta-platform-ast\37.0.0-SNAPSHOT\manta-platform-ast-37.0.0-SNAPSHOT.jar;C:\Users\jchybik\.m2\repository\eu\profinit\manta\manta-connector-common-connection\37.0.0-SNAPSHOT\manta-connector-common-connection-37.0.0-SNAPSHOT.jar;C:\Users\jchybik\.m2\repository\eu\profinit\manta\manta-commons-file-utils\37.0.0-SNAPSHOT\manta-commons-file-utils-37.0.0-SNAPSHOT.jar;C:\Users\jchybik\.m2\repository\eu\profinit\manta\manta-connector-common\37.0.0-SNAPSHOT\manta-connector-common-37.0.0-SNAPSHOT.jar;C:\Users\jchybik\.m2\repository\org\apache\commons\commons-collections4\4.1\commons-collections4-4.1.jar;C:\Users\jchybik\.m2\repository\net\sf\opencsv\opencsv\2.3\opencsv-2.3.jar;C:\Users\jchybik\.m2\repository\org\springframework\spring-jdbc\5.3.19\spring-jdbc-5.3.19.jar;C:\Users\jchybik\.m2\repository\org\springframework\spring-beans\5.3.19\spring-beans-5.3.19.jar;C:\Users\jchybik\.m2\repository\org\springframework\spring-core\5.3.19\spring-core-5.3.19.jar;C:\Users\jchybik\.m2\repository\org\springframework\spring-jcl\5.3.19\spring-jcl-5.3.19.jar;C:\Users\jchybik\.m2\repository\org\springframework\spring-tx\5.3.19\spring-tx-5.3.19.jar;C:\Users\jchybik\.m2\repository\org\apache\commons\commons-dbcp2\2.7.0\commons-dbcp2-2.7.0.jar;C:\Users\jchybik\.m2\repository\org\apache\commons\commons-pool2\2.7.0\commons-pool2-2.7.0.jar;C:\Users\jchybik\.m2\repository\com\h2database\h2\2.1.210\h2-2.1.210.jar;C:\Users\jchybik\.m2\repository\org\antlr\antlr\3.5-rc-2-fix8\antlr-3.5-rc-2-fix8.jar;C:\Users\jchybik\.m2\repository\org\antlr\ST4\4.0.7-rc-2\ST4-4.0.7-rc-2.jar;C:\Users\jchybik\.m2\repository\org\antlr\antlr-runtime\3.5-rc-2\antlr-runtime-3.5-rc-2.jar;C:\Users\jchybik\.m2\repository\org\antlr\stringtemplate\3.2.1\stringtemplate-3.2.1.jar;C:\Users\jchybik\.m2\repository\antlr\antlr\2.7.7\antlr-2.7.7.jar;C:\Users\jchybik\.m2\repository\eu\profinit\manta\manta-dataflow-model-expressions\37.0.0-SNAPSHOT\manta-dataflow-model-expressions-37.0.0-SNAPSHOT.jar;C:\Users\jchybik\.m2\repository\eu\profinit\manta\manta-dataflow-model\37.0.0-SNAPSHOT\manta-dataflow-model-37.0.0-SNAPSHOT.jar;C:\Users\jchybik\.m2\repository\org\jgrapht\jgrapht-jdk1.5\0.7.3\jgrapht-jdk1.5-0.7.3.jar;C:\Users\jchybik\.m2\repository\eu\profinit\manta\manta-dataflow-generator-model-utils\37.0.0-SNAPSHOT\manta-dataflow-generator-model-utils-37.0.0-SNAPSHOT.jar;C:\Users\jchybik\.m2\repository\eu\profinit\manta\manta-connector-common-csv\37.0.0-SNAPSHOT\manta-connector-common-csv-37.0.0-SNAPSHOT.jar;C:\Users\jchybik\.m2\repository\eu\profinit\manta\manta-platform-licensing-validator\37.0.0-SNAPSHOT\manta-platform-licensing-validator-37.0.0-SNAPSHOT.jar;C:\Users\jchybik\.m2\repository\eu\profinit\manta\manta-platform-licensing-common\37.0.0-SNAPSHOT\manta-platform-licensing-common-37.0.0-SNAPSHOT.jar;C:\Users\jchybik\.m2\repository\org\jasypt\jasypt\1.9.1\jasypt-1.9.1.jar;C:\Users\jchybik\.m2\repository\eu\profinit\manta\manta-platform-encryption-symetric\37.0.0-SNAPSHOT\manta-platform-encryption-symetric-37.0.0-SNAPSHOT.jar;C:\Users\jchybik\.m2\repository\org\springframework\security\spring-security-config\5.6.0\spring-security-config-5.6.0.jar;C:\Users\jchybik\.m2\repository\com\fasterxml\jackson\core\jackson-core\2.13.2\jackson-core-2.13.2.jar;C:\Users\jchybik\.m2\repository\com\fasterxml\jackson\core\jackson-annotations\2.13.2\jackson-annotations-2.13.2.jar;"/>
    <property name="sun.cpu.endian" value="little"/>
    <property name="user.home" value="C:\Users\jchybik"/>
    <property name="user.language" value="en"/>
    <property name="java.specification.vendor" value="Oracle Corporation"/>
    <property name="java.version.date" value="2021-10-19"/>
    <property name="java.home" value="C:\Program Files\Java\jdk-11.0.13"/>
    <property name="file.separator" value="\"/>
    <property name="basedir" value="C:\Users\jchybik\Desktop\projects\manta\Connector\DataFactory\manta-connector-datafactory-resolver"/>
    <property name="java.vm.compressedOopsMode" value="Zero based"/>
    <property name="line.separator" value="&#10;"/>
    <property name="java.specification.name" value="Java Platform API Specification"/>
    <property name="java.vm.specification.vendor" value="Oracle Corporation"/>
    <property name="java.awt.graphicsenv" value="sun.awt.Win32GraphicsEnvironment"/>
    <property name="surefire.real.class.path" value="C:\Users\jchybik\AppData\Local\Temp\surefire2237251660233686570\surefirebooter17536650623995030503.jar"/>
    <property name="user.script" value=""/>
    <property name="sun.management.compiler" value="HotSpot 64-Bit Tiered Compilers"/>
    <property name="java.runtime.version" value="11.0.13+10-LTS-370"/>
    <property name="user.name" value="jchybik"/>
    <property name="path.separator" value=";"/>
    <property name="os.version" value="10.0"/>
    <property name="java.runtime.name" value="Java(TM) SE Runtime Environment"/>
    <property name="file.encoding" value="Cp1252"/>
    <property name="java.vm.name" value="Java HotSpot(TM) 64-Bit Server VM"/>
    <property name="java.vendor.version" value="18.9"/>
    <property name="localRepository" value="C:\Users\jchybik\.m2\repository"/>
    <property name="java.vendor.url.bug" value="https://bugreport.java.com/bugreport/"/>
    <property name="java.io.tmpdir" value="C:\Users\jchybik\AppData\Local\Temp\"/>
    <property name="java.version" value="11.0.13"/>
    <property name="user.dir" value="C:\Users\jchybik\Desktop\projects\manta\Connector\DataFactory\manta-connector-datafactory-resolver"/>
    <property name="os.arch" value="amd64"/>
    <property name="java.vm.specification.name" value="Java Virtual Machine Specification"/>
    <property name="java.awt.printerjob" value="sun.awt.windows.WPrinterJob"/>
    <property name="sun.os.patch.level" value=""/>
    <property name="java.library.path" value="C:\Program Files\Java\jdk-11.0.13\bin;C:\windows\Sun\Java\bin;C:\windows\system32;C:\windows;C:\Program Files\Common Files\Oracle\Java\javapath;C:\Program Files (x86)\Common Files\Oracle\Java\javapath;C:\windows\system32;C:\windows;C:\windows\System32\Wbem;C:\windows\System32\WindowsPowerShell\v1.0\;C:\windows\System32\OpenSSH\;C:\ProgramData\chocolatey\bin;C:\Program Files\WireGuard\;C:\Users\jchybik\Desktop\tools\apache-maven-3.8.3\bin;C:\Program Files\TortoiseSVN\bin;C:\Program Files\Git\cmd;C:\Program Files (x86)\NVIDIA Corporation\PhysX\Common;C:\Program Files (x86)\Intel\Intel(R) Management Engine Components\DAL;C:\Program Files\Intel\Intel(R) Management Engine Components\DAL;C:\Users\jchybik\AppData\Local\Microsoft\WindowsApps;C:\Users\jchybik\Desktop\projects\scripts;C:\Program Files\JetBrains\IntelliJ IDEA Community Edition 2020.3.3\bin;;C:\Program Files\Java\jdk-11.0.13\bin;;."/>
    <property name="java.vendor" value="Oracle Corporation"/>
    <property name="java.vm.info" value="mixed mode"/>
    <property name="java.vm.version" value="11.0.13+10-LTS-370"/>
    <property name="sun.io.unicode.encoding" value="UnicodeLittle"/>
    <property name="java.class.version" value="55.0"/>
  </properties>
  <testcase name="parseNoParamsFactory" classname="eu.profinit.manta.connector.datafactory.resolver.service.factory.FactoryParserImplTest" time="0"/>
  <testcase name="parseStandardFactory" classname="eu.profinit.manta.connector.datafactory.resolver.service.factory.FactoryParserImplTest" time="0"/>
  <testcase name="parseMultipleParamsFactory" classname="eu.profinit.manta.connector.datafactory.resolver.service.factory.FactoryParserImplTest" time="0"/>
  <testcase name="parseMissingParamTypeFactory" classname="eu.profinit.manta.connector.datafactory.resolver.service.factory.FactoryParserImplTest" time="0.016"/>
</testsuite>